id,name,version,type,hash,genres,languages
4932776,Serious Sam Collection,collection,wine,547730A41A42D8B47A238128561132C1429B0B51,,
4931763,Terraria: Journey's End,1.4.2.3,native,89EADED628E119EF7FB14859113E087AEB3D70EF,,
4933867,Ultima Classics Collection,collection,wine,6F745ECAD0802F3AC97BB3B99EAB0335C3FD4700,Strategy;Space;Sci-fi;4X\,
4933864,Shantae Collection 2014,collection,wine,F0E17AC3342DDC490284B17A8DD1D211D6DFE715,Indie;Adventure;Female;Protagonist;Action,
4934018,Planetary Annihilation: TITANS,115938,native,B8F853171F9647589047F0162BF4065557838E7F,,
4932723,Untitled Goose Game,1.1.4,wine,5F84050D96E5B68D12E074FEBECFBB618191AFFC,,
4932722,BioShock Collection,collection,wine,648C1477DD1267BB1BE7FDBAC508F839B61D52DC,,
4931764,La Mulana 1 + 2 [MULTi4/3] [Goldberg] [GNU/Linux Native/Wine] [johncena141] La,multi,wine,6D07609E8E506D337AA3ED5505DE920748DDC6BA,,
4932483,Watch Dogs Deluxe,1.06.329,wine,4FB023065C7AD47E4F1B93C511AB40616D46A2A0,,
4931489,Okhlos: Omega + Prototypes,multi,native,EBAD9FCC9E63DAE5732487993A10452D79462F43,,
4931490,Tahira: Echoes of the Astral Empire,1.1.00,native,FFCFAB9688357252E63A669B54C4327ED7338591,,
4932614,Halo: The Master Chief Collection,collection,wine,5A8A065277B4BC8B84B51D06DF3281B40B9EF336,,
4931864,ENDLESS Space 2,2,wine,7DC8AED90DA02B0EFF83452FA0A28CA9F9CECA7F,Strategy;Space;Sci-fi;4X,English;German;French;Korean;Spanish - Spain;Simplified Chinese;Traditional Chinese;Russian;Polish;Portuguese - Brazil
4934120,Agatha Knife,4731597,native,DF26300479BE23F861B0850472A993451F14690A,Indie;Adventure;Point & Click;Dark;Humor,English;German;French;Italian;Korean;Spanish - Spain;Russian
4931359,Alwa's Awakening + Alwa's Legacy,multi,native,1F6A56DB1800E7D7864F847FAA513915CD2C66B8,,
4931487,Curious Expedition + ,multi,wine,D7045B4B845AF61F89EACEC3C2D7341D21D2502A,,
4931488,Crimsonland,1.3.5,native,D67187D04185104B90B253495DD13E4699B67D0C,,
4932594,Supraland,1.22.13,wine,947EA82FA8756F0AE2251386C6443A13E2512EE4,Puzzle;Adventure;Exploration;Metroidvania,English;French;Korean;Simplified Chinese;Traditional Chinese;Japanese;Portuguese;Finnish;Hungarian;Turkish
4931427,GRIP: Combat Racing,11,wine,E14D42A327F86431490C7665EDC817630E9A790C,,
4930582,Street Fighter V Champion Edition,141...,wine,ACE213B3C4E36AC8E1025404B9ED7FC71BF8B487,,
4929296,Black Mesa,26.04.2021,native,20C3B55AFE956293DC2BE7B80085E9A7C86FBA57,,
4927256,The Free Ones,3.1,native,91F7C22A12471ED135FF693FDA27CBDF5B1B0D23,,
4927252,Slain: Back from Hell,141,native,B7A372FCFE7E21143EF2AF448C5E89D5F4469AF0,,
4927255,Stick it to The Man!,6,native,BDFB6480D49D1E95EA16BBF2153E3EEF75BED319,,
4927253,Slime,1.3,native,20B1DDF8E458173FE82A2E566A8EA33126EE0073,,
4928747,Valheim,0.156.2,native,7D73BF856E29DAEE66555C38CEC213539FB8F497,,
4928282,Shadow Warrior Collection [1997,collection,wine,5041EC71DF0D231C49D27F608C27ED9050389401,,
4927251,My Brother Rabbit,13,native,D8CFD6509F65E6BFA20ED7D5E90D89C73E6D3198,,
4927244,Closure,1.1,native,A1A15434525ABB293284E7A5EEB0F42C05180BE2,,
4927249,Hatred,20750,native,8FE71F68A50FF6ED4F1153C9193A6DAD1B9EBE81,,
4927248,Filament,1.0.2,native,458396BB95F1971BD97F573C1BD04707C0A8A33D,,
4927245,Drifting Lands,1.0.1527.31781,native,00E963D0E2E260094F6444EDBE2E72049AB5D54F,,
4929584,Paradox Grand Strategy Collection 00,collection,wine,04A09D20754EB74A676FE2B265A7A1F8B7AC2A97,,
4927246,The Procession to Calvary,141,native,89608AFD93309B5DD889539EB0DD06139F4FA85A,,
4927250,Knytt Underground,1.2.1,native,2783C7A54690471B03296C25AC3B4201FA528AB7,,
4927242,Candleman: The Complete Journey,2.9.18,native,2B0F1942858B7A82A239C0E333A5867622860604,,
4927247,Through the Darkest of Times,30.01.2020,native,68BC9A8F4261B76CBA55A0875B89795EE08953DA,,
4929594,Milkmaid of the Milky Way,23.03.2020,native,3703557C9E47344B26AF7275ED0BC00F924E426A,,
4927243,Dandara: Trials of Fear Edition,1.3.7,native,C5AF59CAC7AF3878B83423034F9B78DCD8694A96,,
4927241,Abandon Ship,1.3.14934,native,B184CB39F34088A08712310CC751C6A6A59B35EB,,
4927237,Shadowgate,1.2,native,66E216E6A2144E6101A21642858D53FE850D4CFB,,
4927238,Perils of Man,3,native,B921E5E3016DFDE4D5FD4856E61E9BDB42845D05,,
4927240,Thomas Was Alone,141,native,2C79FDB66FA7A40FD2D6E147FD960C976DAC6D1B,,
4927236,Rise and Shine,2.1,native,335689FFB307DAF425527B3D0C8FAD7DD434B0C2,,
4927229,Knock,2.0.0.1,native,928A1269756B3FC324B6F9DA6F4D881EF8B86CE8,,
4927221,Broken Age,2.4.800398,native,C81FDA29E7D1BB7B956FD421AD4B57124A04AAF3,,
4927226,Forsaken Remastered,1.4.1,native,0FD9C8683B1D93DF8A7ACC6F964F519F21219BB3,,
4927224,Dog Sled Saga,141,native,42B230BB2218FEDFE355B0817D5D9C7E8CD8AAC5,,
4927227,High Hell,102,native,0618A825B7A85EA713AD794C38F9FB2C21692DCB,,
4927228,Kentucky Route Zero,06.02.2020,native,2E185C7CEEB86F01332C6CA19421E2B29F0F4EDC,,
4927234,Near Death,1.07,native,9893BCCB4A9230BAFB605B546AF2DE5ED144AE8E,,
4927223,Dead End Road,1.6b,native,0EAC7051AB5E9C6A7D6A9BAB159108607150E6AE,,
4927222,Catmaze,3,native,788A1C38C2FA3374A6B8B01F4B65004879818396,,
4927225,Donut County,1.1,native,3D0ED96BAF534D43D94E8FF132465D5C50286081,,
4927056,Dead Cells: The Fatal Seed,08.07.2021,native,80B78475CAE469259882F95FAEE28AA811D0D97D,,
4927235,Potatoman Seeks the Troof,1.0.6,native,7B1FD91C8A18F30A69C9A8326596B0790281F651,,
4927220,Beyond Eyes,6,native,ED24DA8F12E37423D09FFE37620B9B7B4196C5FF,,
4927233,Monstrum,141,native,BDB5A132878367AED7600FD457DCBCA777291F3E,,
4927231,Masochisia,141,native,D1896228E657569B9199155266DA6CAD0625597F,,
4927230,Kung Fury: Street Rage,1.0,native,15053B0DD22B52C19B031FB3873B598A8C4B37A9,,
4927055,Surviving Mars Digital Deluxe,1001586,native,E519281C935D86E618B1C8191AF5C7EFBFB8B561,,
4916217,Backland,141,native,9C09C551BDAC01D9061751A1F6BF1EA820B1B79F,,
4923319,Day of the Tentacle Remastered,1.4.1,native,7AA4BCFE167E2C43705C146066ADBB2C138F8A26,,
4921572,Mutazione,1.82,native,5E22837F426C4F3F702AE229ABE1280ABD98C4E2,,
4920626,Spelunky 1 + 2,multi,wine,C495473A9A73E0EA138ABCDBF0D9B8A1653D7C15,,
4916219,Knightin'+,multi,native,AE4178A166641A5066485D2791AFC6955EA7E210,,
4921569,Thimbleweed Park,1.0.958,native,CBC2F0D02C1D3195A6BC7E04E92AABE6D4E822FF,,
4916216,The Long Reach,1.0,native,DC5576AC6A77226186156571EA336C08ED1F1780,,
4921364,NieR:Automata YoRHa Edition,020666,wine,0C5FDA3009762A6CC0A3C2CA61020C4EAF4CA34C,,English;French;Italian;German;Spanish - Spain;Japanese
4923321,Paradigm,141,native,054C9714B51CD963E3C27AA8E0608B31398F306B,,
4923318,Antichamber,1.01,native,7A9E02E11A480631AFC557F463D7B21B9D8E98C4,,
4920632,Gray Dawn,24.07.2019,wine,85646B0987A3DC9087D70B12A0E4E561CA99807C,,
4924017,Diablo I + II,multi,wine,4406FFCBFA5F2EEB0C82EB88A641170188A6FA7F,,
4915239,FTL: Faster Than Light,1.6.9,native,424E6E35BB160F144B5C934367348164C33438BC,,
4923320,Never Alone Arctic Colection,2.1.0.3,native,7AC26334B89E3DC5EA39D99C44E07725AEE1959A,,
4921571,The Little Acre,3,native,D5D9CAF154F347A51601938C06D077EE5DCA74A8,,
4917147,GoNNER +  The Full Ilk Edition,multi,native,D7A26468A8C489FA43A8325745B452A0A8D45B8C,,
4916035,Criminal Girls: Invite Only,1577783,wine,C119D3D1B2D4CDA0C3386DB4A0B545B36B007835,,
4915243,The Swapper,02.04.2014,native,CD30AEE545BE0EB9F16DD70AB70571807A0ED7B6,,
4926111,Slime Rancher,20.10.2020,native,ACF555040D433043FF100F7CC8FC90E6576237C7,,
4915236,Cathedral,1.3.27,native,223427B0E87EADF3413BA25CFAED2D577D310DC3,,
4915002,Eastern Exorcist ,10.07.2021,wine,A7A3BAAD68C508D70F86695D03AEF4428302DD80,,
4915006,MindSeize,1.4.6,wine,013D194C9DA3DB28A3791A789FA5F98AC54A3067,,
4915007,OCTOPATH TRAVELER,22.07.2020,wine,2F55DEDF03963F604FF913F551E60AF055710247,,
4915013,Titan Souls,5,wine,817C6DF78A99A08A6E2EA633E41E47E25D9E5F84,,
4915008,Stray Cat Crossing,20.09.2015,wine,787B0F7E1EF9CA03AC3DADD2809DFFE155546EFE,,
4915000,198X,198X,wine,2E05821A55C9DE7F0ACBF3F67D65BF437C5E7175,,
4915003,ENDER LILIES: Quietus of the Knights ,1.0.6,wine,B93736D1AFB6102A7A095A8917DD24BD4525CFA5,,
4914131,Sid Meier’s Civilization VI,1.0.12.9,wine,E644BCBC4B5775E3DD52634B7593467B08CEC51A,,
4915011,The Citadel,2.17,wine,9AAAB682A7694589FA9150929313BE01B220D0BA,,
4913361,Borderlands 3: Ultimate Edition,3,wine,A8E9560D79B8DBDD6CD8422AD4AEB4623E718B4F,,
4914753,Hollow Knight,1.5.75,native,8C9F31E66F57FC7DE5211164DA057F098265E19C,,
4912902,Penumbra Black Plague + Requiem + Overture,multi,native,6B0E8AE070976FFF36041063CD62772529239DED,,
4915005,Mayhem in Single Valley,4.0.8,wine,61F157E48354A2D45F3C12BFB3BCFB0B1ED3806E,,
4914750,RimWorld,1.2.2900,native,65FA0580C01DF13BD907A9C92200409B53BAB4DC,,
4910634,Forza Horizon 4,4,wine,E76BFE0FCB6EA65A539BD9F5DC709BF57792D6F3,,
4912840,Brigador: Up,1.62,native,9A9993A564AE60DBC0A4E50D0109B883D2DB8EF2,,
4912167,Manhunt Collection  + ,collection,wine,4E5DA75A3A644391AADDD3BCAFF50F5B09EA356C,,
4911277,Prince of Persia Collection 2003,collection,wine,D1B70F4E380D2602763B2CD76B9483554EC31F77,,
4915001,Contra Anniversary Collection,collection,wine,7729EB0759DD888592388E3F250BD88149A9A670,,
4909938,Slave Zero,2.1.0.13,wine,08DE8A3E0539AAF76BEA51B7B728D3AC7A92A056,,
4908358,MechaNika,01.03.2020,native,390CB9E6416F593D4755BE6B26D243ABBE0975AF,,
4906238,Prototype + ,multi,wine,33D69F906E244581DDC452F76A9C0463AD213319,,
4907315,Fear and Hunger,1.4.1,native,5E85FB26D18D60002B38529ACD4D8ED99EB9A858,,
4908351,The Darkside Detective + A Fumble in the Dark,multi,native,D76FF1229B44471FD38BD17E9DEBB3F99463CE95,,
4908027,Kingdom Rush Collection,collection,wine,B272528912F064838286B6013EB9BE2BFB482721,,
4905830,Traque,141,wine,674801DDAD263B8674DC8E54B2FD95713E472320,,
4904833,Owlboy + Savant,multi,native,AC8BF0BA014907E8D692561E9E7653451E37E21D,,
4904836,The Grave Digger,1.1.1,native,3D0C05F7A1DB579A877BCF0A0F9C2E23344DB235,,
4905818,Crusader Kings III,1.4.2,native,887A2C1FBC3D79D64A71961D40B3716EDAAEB71C,,
4906407,Shadowrun Collection,collection,native,B6ACE510284423D40ACBD6F681232AE35CDB87CD,,
4906171,Goetia,141,native,F78BFBE234BC0946720790BFE069E87F2E465362,,
4904839,Rakuen,86,native,79E9D65D8441B0CCD2015BEEB8C1747AA85AD38E,,
4910395,LISA: The Painful,31.05.2019,wine,07AD76AA28EAEDB9B1B32326A4E1AAB7BF8E56CA,,
4904835,Crystal Caves HD,1.1.1.3,native,C9ADD90FC4C59234E42D811AD8C27D3D20AF5706,,
4908359,Another Star,3C,native,8579DE61D2BEF534C956DFF3596FD66DB477FE45,,
4910276,Saints Row Collection 2009,collection,wine,E46482D22CD758575BE9D12EFCD39DBDE9F29548,,
4906170,Northgard: The Viking Age Edition,2.5.5.21897,native,86F50E4CA2456A10FECBB93B415806EDE9BB390B,,
4904838,Life Goes On: Done to Death,2.03,native,0DF25FF07781A06B78245AEAF52902672BAFB169,,
4905436,Far Cry Collection 2004,collection,wine,7BF21EE63EE1E7970BB2D5B3271BC4DAEA951C7A,,
4903867,Thems Fightin Herds,2.1.2,native,92275422028D32A3D8D30369241C12DAC6D42CCF,,
4903882,Dustforce DX,141,native,832FBD63DF43E178CF32DE69DF8618D12990CD99,,
4899879,MechWarrior 5: Mercenaries,5,wine,4EAB84DF83D8DCD44305BFB5A99F7E2CDD4885EF,,
4902836,Horizon Zero Dawn,1.10,wine,FA5044F75333277E2FFAF84E8EDE2DBE69294BA2,,
4903512,Total War Three Kingdoms,1.7.1,native,33993691B872E9A3C4E749271F254D8FCCEE0DF6,,
4900227,Firewatch,1.0.9,native,5A379194D7AE16B5AFE2725CFBC310BD94FB78B4,,
4903132,Hue,5,native,CD9A22E038C0EFF88A756DE88B2EDCEE1F3217F3,,
4903870,Children of Morta,1.2.58g,native,6AE6528157B54FD944E1BA70A416C0796FB9C844,,
4903017,Baldurs Gate Duology [MULTi7/9] [GOG] [GNU/Linux Native v2] [johncena141] I,7,native,904077F881D8A0608221EE69B8C6E3E41894F992,,
4900216,Fran Bow + Little Misfortune,multi,native,B0C7AB3FC0EEDB80D92069ECA3F3FAA9B9119FCA,,
4900220,Halcyon 6 Lightspeed + Starbase Commander,multi,native,6AAC29F79725BDA4D505C0DBC06640A4D6285A98,,
4900838,South Park: The Stick of Truth,228353,wine,4860E5CDCED83937634FEB18493DFADFD11944D4,,
4901843,Cat in the Box,30.06.2020,wine,2F670668A813712F1807CC82D4DB7E3DAC369869,,
4900241,SUPERHOT + Mind Control Delete,multi,native,53BB03DD62352CE76487ADADAA4053F31C64C18F,,English French Italian German Spanish Czech Hungarian Japanese Korean Polish Portuguese Russian Simplified Chinese Traditional Chinese
4900236,Hotline Miami + Hotline Miami : Wrong Number,multi,native,3301CF213ADED9300E3C03C702AEBCD097CFC7F7,,English* French German Spanish Polish Portuguese Russian
4900224,BATTLETECH: Deluxe Edition,1.9.1,native,F1198F00B8A9F13E491819AB6D25882D599543EA,,English*;French;German;Russian
4900212,SOMA,151,native,AC068B836E92B170096FCFECD325FD282152FB76,,English* French Italian German Spanish Portuguese Russian
4901190,Death Stranding,1.06,wine,57DD77BF77466B2A6E80F98E6B0FC39E7484DC17,,
4903129,Akane,3370210,native,5B77F3B79E4CC37041E52F1B8E9820D847F23D3C,,
4900793,Bloodstained Collection,collection,wine,49B0A06C5C771661FBE96307A9F49CEE80593EE9,,
4899040,Psychonauts,2020,wine,802269DA5B5B44978BB937C8FC9A4223A494D695,,
4899034,AER Memories of Old,1.0.4.2,native,DBD79214BD995304DE7AB2102F46CFAD51F3BB2A,,
4899035,Journey of a Roach,2016,wine,BF6D825FB865B53EEFCDFC6A7BF8FEC3EB232317,,
4898493,Dark Souls I,v2,wine,94B44375DEE46B2686C2CB726AE0A8FBF3BDA791,,
4899033,Reventure,1.9.5,wine,1153B6288B688F61CC72FF49E48CC1118EB5A01D,,
4897435,Celeste,1.4.0,native,57330D7D7E381FAAC8FE4420D0A68A3C06F925D9,,
4898446,Hearts of Iron IV: Battle for the Bosporus,1.10.7,native,2B4CCBA960C4973E2F9EB048F8E40B660F66862A,,
4899038,Milk inside a bag of milk inside a bag of milk,original,native,178A32839C34A526BF07EB82E458D3FD6D34E88B,,
4897434,Candle,2.3.0.5,native,08D0A98693E86DBB7D9B8B227BA1C4C0CF74699C,,
4897436,Crossing Souls,1.2.4,native,954DC32CC1121CE4221FFF31B0FBB4051D7565AE,,
4897439,Pinstripe,2.0.2,native,501AFCA878159E56A9AC4E53D1A10A0DA61FD19A,,
4897442,Tangledeep,1.4i_2,native,08C6E92CD89D1EA53657497C7F121173941C3142,,
4897438,Oh...Sir!! The Insult Simulator,1.11,native,44FD0C8A4E664C3EA1BC52DFEE111C1941FEBB00,,
4897440,SEUM: Speedrunners from Hell,8,native,0C9BE266FB52328FB50F4E30D7AAC71FA504D38D,,
4898323,The Punisher,2005,wine,67BA513FF9567F503EE2ED08855B121D25727994,,
4897505,Sleeping Dogs: Definitive Edition,45681,wine,B4D89749DCD7FAB673BD1BE42AA5CB34FE847237,,
4897443,The Raven Remastered,1.1.0.654,native,6E30AC15C9438B93650E6145C253F93CBAE19C8E,,
4897561,Blackwell Collection,collection,native,FBDF51441C56ABF52FF5EF5F118186387C5851A2,,
4897437,Neverending Nightmares,3.3.22468,native,E52D7260C7D82276FACDC95FF042B0445B856332,,
4897441,Skulls of the Shogun 2.0.0.2,2.0.0.2,native,5F2AF820E7B10673ABD19035770E8C011A6ED34F,,
4896219,Blasphemous Deluxe Edition,2.2.0.0,native,F6EF636A95CDCE018DA67BBE91CBEC125D04CBBA,,
4897367,Blazing Chrome,4263747,wine,310F176670C52388CA9812B7C0420317919E359B,,
4897433,Among the Sleep Enhanced Edition,3.0.1,native,AE0C7796E783D771BE96119AEF91E10A7CFF1103,,
4896833,Not Tonight,1.35,wine,54C45B6893349D76475999F0F6F039EE0344026D,,
4896216,Cultist Simulator: The Exile,2020.11.a1,native,DFFFEC28630C1C502A16E3F9874E759DFC9980A9,,
4896217,Butcher,10,native,F1532194060F1890496A21FFEDEBD71474E20727,,
4896211,Hero,2020.07.20,native,0F1F27F6D10882655CCE297FE1E117E05DC5902C,,
4897392,Cyber Shadow,1.04,native,0D66F59988D89F9F0A3DBF2A1CB36A9C66F9BB20,,
4896832,Ikenfell,1.0.2,wine,E3A359BF16C3587F5DBDE586ADD3134B503010F1,,
4896214,Full Metal Furies,1.2.1,native,6DB7E0A85183147F38B98C8A113416423436E8A9,,
4896220,Besiege,1.05,native,0C905BF3B20A356DFA590AF9C9204B0E068463A5,,
4897359,Katana ZERO,3889288,wine,1E82C56CA11E5C6CAD8FE235D3251085A281EAB8,,
4896215,Darkest Dungeon,25632,native,C3A6D7BADB013770747EB32012133294555B3A0B,,
4896221,West of Loathing: Reckonin' at Gun Manor,1.11.11.1,native,6879A62ED2B4E10C256C2D9048DE488FC53305A9,,
4896834,Infliction Extended Cut,3.0.1,wine,DF80C7F87467184A3F7948152BAE75229E3D18DC,,
4896218,Broforce,1130,native,E246306ACE55192796093BAC36424D8C2D56A63D,,
4896213,Getting Over It with Bennett Foddy,1.599,native,ACB6A53D80188B9B34F5D0F91EB0F532EE448C87,,
4896828,The Wolf Among Us,319083,wine,B4463BFAFD07F36BE7280B2B7E32F6F5571EEB5F,,
4896212,Graveyard Keeper Game of Crone,1.310,native,A328822CFC1421AEB3E5CBD9E7F485FEAF7A1C44,,
4896831,Olija,2.01.2021,wine,67DAB376DAD7CF58718993D554159F6A81B9BF4D,,
4896206,Mana Spark,1.1.10,native,AB0F7BD3766D6A59D58C5C68DB5E4D2EF78C09A7,,
4896208,Kingdoms and Castles,117r7,native,4C03026C8445AC3AA9A6A363966BCA8018EBA502,,
4896199,Sally Face,1.5.29,native,7164DDE5167293833D4A669EC04576B51463CE30,,
4896193,Super Meat Boy,06072012,native,C97249B272F6823F8CC8F1A8EE443427E2ECDD87,,
4896194,Streets of Rogue,92.1,native,57BC46A65534EF9CCCA994A81BEE45F64E408947,,
4896201,Project Hospital: Traumatology Department,1.2.2,native,115D35B0B873B0B71BADD97B1FDCDA819F9C3911,,
4896197,Skullgirls 2nd Encore,2nd,native,DE0BC262539D254782DE3B549CF9BAFF46511580,,
4896195,Starbound,1.4.4,native,57D0DBA68DBC176A09E8F85F7DD475B8916B8526,,
4895177,R,2,wine,020AF88FA80FA16E1449B01C659D43C1E3D9A990,,
4896196,Slay the Spire,2020.12.15,native,422C61C82D6082ABCD01A3D37E719E7FDEF4DBEA,,
4896198,Shovel Knight: Treasure Trove,4.1,native,6BB30F491A6231F18698E7001D76F1DD8D338E90,,
4896207,Luna The Shadow Dust,1.0.2,native,220D6718184C6AC234F50A96E00B84859B0D4DB1,,
4896189,Universe Sandbox 2,2,native,5CA7C502542D5EF51162F58F413E8EAC561FE88E,,
4895400,Pillars of Eternity Duology,7,native,27E95BF2FCD12CB03F4EE456D3D0AA195B0DD20C,,
4896209,Kingdom Two Crowns,1.1.7,native,0E49158BEB1D7F589CE5C46D539DF018CF99E0D1,,
4896203,Plague Inc: Evolved ,1.18.1,native,F852163CFE46EF6820E3376DEB3CDF742EFEE7D7,,
4895239,Silent Hill 2: Enhanced Edition,2,wine,8EDD2BDFB75C828DC5188FAA3A543A2E8C311270,,
4896205,Moonlighter,1.11.24,native,1FD7700E0B033C203A3ABF631D0A6C95EDB8CDEB,,
4896210,Into the Breach,1.2.24,native,35D5D03C44B5304A405A05759918D62E613B335C,,
4896192,The Longing,1.0.7,native,89825836CF3673119C15D0CAC5697870FE9CC5D1,,
4893527,Geometry Dash,2301228,wine,6B8322F70B8728E0064817858A43583121908EDD,,
4894504,Superbrothers: Sword & Sworcery EP,1.02,native,406E1D0A431C9EA20580B18C06BD5ACCC859B846,,
4894505,Slipstream,1.1.11,native,A6335BD947E88AC72DEBE6BB9A9EC143CCB93CFB,,
4892964,Griftlands,03.06.2021,native,94DA7F20024636FECA97DC7B9F58A4BBB6EDF7AE,,
4895023,A Short Hike,1.8.14,native,511F91F0A211E0DC312BFA5386A33C2F9955684A,,
4894159,Monster Sanctuary,1.1,native,DB7747F88FCE5AB65BA48CAC4EEDD3EC69C57839,,
4894158,Lucah: Born of a Dream,6027139,native,365CE0FC858D16379C296B04A8582C83AD467957,,
4894471,Lost in Vivo,4518846,wine,502E670B14366DAFCA376AC94B0CF8A8B62F642A,,
4892958,Moon Hunters,2.0.3491,native,318EBE53BAA4862B27E24124015A79A1574CDD3C,,
4894163,Wizard of Legend,5053033,native,9C8FEF52364340355361AAF6E6D095A475562759,,
4894161,Silence,1.1.20229,native,C20161ABDC4541EE0DABBF10B370E8734CD7114D,,
4892963,Ken Folletts The Pillars of the Earth,1.1.703,native,0EC30C81789112E75FD484CB0A12034215E3D4A1,,
4893511,Mount & Blade II: Bannerlord,1.6.0,wine,06DDE9AF62562EC46CB65335ADA5842AB2B41324,,
4893063,Serial Cleaner,3553330,native,01DC3DE37EAE7F3C2353EC390E9C148E67BD307E,,
4894426,Days Gone,1.04,wine,8D3D0BF0F6C777365B1D66BC8C7924A5449FA2FC,,
4892962,Mainframe Defenders,1.3093,native,840E3454593A8CDB3E8552C033948E3C290EB44E,,
4892959,Memoranda,2.0.0.1,native,782F7FB6E24B3E431981D8110CB8247AE0D72DF3,,
4894644,NeuroVoider + ScourgeBringer,multi,native,E41F589A51C2992F5F9F2BDD1E324F566F889DF3,,
4894160,Nihilumbra,1.35,native,51F788D9BCD82F4676D94D7EB7CAA0D38AB3A5F3,,
4892965,"Duke Grabowski, Mighty Swashbuckler",original,native,2233CD82E275ADF41C08DAEB5EE9C42198AC0655,,
4892953,Super Time Force Ultra,18.08.2016,native,532DFE67A657796D7E388AD244197183EFA3D146,,
4892955,Rainswept,1.1.5a,native,DC96CC144038C59EC9AB3547C8235C94DA300BD4,,
4892956,NOT A HERO,5,native,15D65932F506DF9A8A7D9841E658202B58D54561,,
4892952,Torment: Tides of Numenera,2.3.0.4,native,BC4AA022B1FB8DE1F9127F68E319E3CA163386DF,,
4892157,Prey + Mooncrash,multi,wine,8A31050194FFEB49A04798AC35C4BC1AFD9C6E77,,
4890409,Herald: An Interactive Period Drama I & II,1.2.1,native,2A153BE57EBBCC2EA772667D25D509DBF71635FC,,
4891234,The Eternal Castle,141...,native,9F03CE672880EC6A1DC9BA2D459EC7C59CC68413,,
4892957,Tales From Space: Mutant Blobs Attack,6,native,01AA4A2507F74C77A53A94B032A1B14DBF79E8A2,,
4891194,Assassins Creed: Odyssey Ultimate Edition,1.5.3,wine,2286FB9871B0A06AAD49FB497C2E53D0F1C96E30,,
4891891,APE OUT,21.06.2019,wine,53AA6C7897997C7883F42D11D54209F3F59C1E5A,,
4891893,Dujanah + Beeswing,multi,wine,0BBC9F020235313F695C675FE2DD0D328F3295F1,,
4891892,The Stanley Parable,1541646,wine,786ABFB91FD8601E661CDF2EF1E301F3F2565358,,
4891749,Prey 2006,2006,native,C360664F2A0D1030738FA2CDCACF84FD8C53D6C9,,
4891894,Dead Synchronicity: Tomorrow Comes Today,7,native,9A424CBF67AF7262624B5406D6FD8EE2CF757E95,,
4890410,The Whispered World Special Edition,3.2.0419,native,92DC7EF6FBB392E7F1B2897695D68EFE0C3FCEE2,,
4890412,Where the Water Tastes Like Wine,1.4.2,wine,06BEFBCFCEE8C9FA3219E9B9CD9AD5FEAAA2EA52,,
4892170,The End Is Nigh,28.12.2017,native,8A2C5034250AFB0B8365653D9B77FA78B18AF6E3,,
4892212,The Red Strings Club + Gods Will Be Watching,multi,wine,4BD2842036AF787344BB7DCAB0B73828322BE4F6,,
4891149,Total War: ROME REMASTERED,2.0.1,native,51289F735E654618D1E716E1AD2F51AC7BC3F646,,
4890926,Full Tilt Pinball Collection,collection,wine,9E1D20AEB10312362409928DA368C7DC404CFD78,,
4890405,Chaos Reborn,1.13.3,native,38FE7FD9074418328CA8806D0DB7F5397AD08226,,
4889281,Another World,2020,native,7B66977AE3BEF6834DE0281B9051F845D8D98429,,
4890232,Darkwood,1.3,native,E5F9D436DDF00CD7D2E7B7E07EAA82BA6EB085AE,,
4889375,Windward,2.34.0.37,native,20D813DC757DB770D0BC0F7ED06C522F004F6ED5,,
4889377,Monochroma,23,native,4B642A3A19453A9E6B10A79BB1D1C32013B8841F,,
4889379,The  Steps,39,native,B7F4F1B499B7A00BC40741F18DF39F5261DE6EAC,,
4890397,Indivisible + Razmi's Challenges,multi,native,8CBB9356606835C15379F9351333D69301839ED2,,
4889900,"Papers, Please",1.1.65,native,ABA0B17A64E3806C67017AF10E962757996CFB71,,
4888962,Spec Ops: The Line,1.0.689,wine,6E2735250437C96B127A5FEB8592B1D2292160D8,,English;Deutsch;español;français;italiano;русский;日本語
4888926,Neverhood,141,wine,065C5E601D11E4A7A5558366AE29FAE59037F9E2,,
4889381,Tiny and Big: Grandpa's Leftovers,1.4.1,native,C24D8EA8A3C76E85A09BDF9F649D70D854E3760C,,
4888638,The Final Station,1.5.2,native,B147E95AFECEDE7AE62B63BC2F65539FEF288E59,,
4890406,Convoy,1.1.55,native,49A47042267A0AD73DA2E43BAD9DDFE13FED09F6,,
4890403,Beat Cop,1.1.744,native,39A9829B15F345F84162E5AB7988C124C6446D41,,
4888664,Big Dick at the Beach,6,native,F5F2914D794767C0A7692CA9BD829DF7DB78B906,,
4888457,Project Zomboid,41.5,native,A03F3FE9D09F5F0099E65A7724CBF0F98B1C513E,,
4888429,Monster Hunter: Iceborne,12,wine,BC9D06ED57B5710E55E878BDBD1CC2914ABEF5F4,,
4888615,Kingdom Hearts Collection 2017,collection,wine,96585B16EBD5A0B50B28A5B1B531A25A12442ED5,,
4890408,Else Heart.Break(),2.6.0.9,native,22B25DD55C28DAA1E42B1DA278A002943F61FEC1,,
4889203,johncena141 ALBUM 1,141,native,E401F6C66B81E293C8C4F5B3ABC082470AEE7E2D,,
4881602,TimeShift,1.02,wine,42D496E41F3A01E8995CEF2BFC1AA2777458FB0D,,english;spanish;french;italian
4888144,Minecraft,1.17,native,8C8D5FF0B13C19ECFD7E578713409A289660C70D,,
4888293,Burnout Paradise,3645,wine,110586B1ABC0907EF6791077977647DFE22A4316,,
4887555,Irony Curtain: From Matryoshka with Love,1.0,native,25A29C6BD380CA8C27CCB9DCABCAF6EE1F92D3D3,,
4888199,Painkiller Collection,collection,wine,09B530EDF3D69B369EF66C71A5F8ED2C81AC18E8,,
4886448,DOOM 2016,2016,wine,A278A3C56F07AF9DF2547616E212110757EB765C,,English*;French*;Italian*;German*;Spanish*;Japanese*;Polish*;Portuguese-Brazil*;Russian*;Traditional Chinese
4886886,Europa Universalis IV,1.31.4,native,3FE687D7CDC5B2971DBB623DEC3113996B639AC9,,
4887553,FEIST,1.1.2,native,287D1C7E75982770D7477E608D0A7759B24FD577,,
4887516,Bulletstorm Full Clip Edition,3679089,wine,EAFE35F80FC5F5DFD08549CC7F5D891F602B9E0D,,
4887551,A Hole New World,1.1,native,110821F75712BAF0B98767BEB458D3948C4FDBB5,,
4885057,Lost Ruins,1.0,native,E00E18CC4CBF94D38C1D3592A371FF175EF3247C,,
4886760,Vampire: The Masquerade Collection 2000,collection,wine,7CD6353B0AFC578552053727AF9AF2F11C000764,,
4886498,Resident Evil Collection,collection,wine,7BA914B2E92BE2CA9799E529E681D56507F64069,,
4885004,SteamWorld Collection,collection,native,F6A19422A1394AB78B0670C386F32AE0FD663E48,,
4887369,Borderlands Collection,collection,wine,A7389147558DF9980C949C4AE2381CB344081286,,
4885542,Astalon: Tears of the Earth,1.0.4,native,2BCE0034D7ED2EED9F1A047879B10960F3060944,,English French German Japanese Simplified Chinese Traditional Chinese Korean Russian Ukrainian Spanish
4887552,Dungeon Souls,1.0.5.5,native,D265BDD60CCBEA8BA71D2C5C29D0F47E4635EA83,,
4883449,Call of Duty Collection,collection,wine,1EBDECD9DE8DEAD1441FA922D6E54F5D23865371,,
4885940,Assassins Creed Collection,collection,wine,1CC2390F852BFA9ABB9BB7F112AA8764DF851417,,
4884230,Keep Talking and Nobody Explodes,1.9.24,native,8FD7B5E88FEFA2D065F5E67D10C4B002B5BC8BF1,,english;spanish;dutch;danish;hungarian;german;czech;french;norwegian;esperanto;italian;polish
4876688,Ghostrunner,0.34834.426,wine,18A733A8A7CC00F2A7BDA6951D650683852018ED,,English French Italian German Japanese Polish Portuguese Russian Simplified Chinese Spanish Korean Traditional Chinese Spanish
4881393,Stardew Valley,1.5.4.9,native,70ACAE22247109EB67D55835AA034A771A558568,,
4881441,Kreed + Battle of Savitar,multi,wine,277CCFD569045515BAE4EBB24B3361B3B2225486,,
4878542,Total Overdose: A Gunslinger's Tale in Mexico,14...,wine,06EF73861D58AEF626974BD02ECC70177C8CD6ED,,
4880055,Yakuza: Like a Dragon,6514770,wine,2075BA8107446BFEA37D32929A3F6C4510EC213C,,
4879134,ACE COMBAT 7: SKIES UNKNOWN,7,wine,E439ADE0F746C77F3C4251FD93104694923EFEA7,,English*;French;Italian;German;Spanish;Japanese*;Polish;Portuguese-Brazil;Russian;Korean;Traditional Chinese
4877159,Pony Island,1.22,native,CC52DF3F732FDD262011F37E7707ECF690CBEF10,,
4878691,Chivalry: Medieval Warfare,5216971,native,FE6E1CE73E24673B78064693CB161C22E701FAEE,,
4877362,Call of Juarez,2007,wine,04C9520E55993B84D07D07F0191DD7C152B81963,,
4877151,Cave Story +,multi,native,6A28FAF2D081DC50D5A39AAF32C0C7A79A2A3934,,
4875937,Alice Remastered + Alice Madness Returns,multi,wine,887406ADCE0B3EF0FF38B69A72B3D807D97BE3BB,,
4876186,Gato Roboto b,4120259,wine,83251CC8E6A65F72DCB89D5691EE503F653FD733,,
4879499,Big Rigs Over the Road Racing,1.0,wine,162AAD219870DD1C7194443B9BF0E540C01AAE11,,
4877661,Sonic Mania,3617885,wine,6D49EC7B3A9660FC5C07BCFC81661610C98CA887,,
4877625,Persona 4 Golden,4,wine,7323A45CA2F6105B793BE8EEA2ED9300FA8ABDB5,,
4879574,River City Girls,1.1,wine,6378EFBA499BA51FF518F5031F064A6C82E23F5E,,
4877148,Night in the woods: Weird Autumn b,406,native,5C32BDC06DE946388BFB33F25F405645C627BA53,,
4879329,DRAGON QUEST XI S: Echoes of an Elusive Age,original,wine,96D533B69A56F7439E34DD9A680F011AA87B47FE,,
4878500,Aliens vs Predator,1999,wine,FDA893F03716D9F79A3E78F3BB7E288901D5C7E3,,
4876251,GUN,2.0.0.3,wine,0D70BEDB1A9E75A74853C3DBA5EE2866BE9C9DBA,,English;German;French;Spanish;Italian
4875038,Freedom Planet,1.21.5,native,5987F5E802E935AE5AE6F65A0C4B8B8EDD13B78E,,
4874365,S.T.A.L.K.E.R,2007,wine,40C10B94ED55520EEEE40240388CD0F8014AB202,,english;french;german;italian;spanish
4874454,Iconoclasts,1.14h,native,BEAEC7FD1ED35B48561C46C20B970E55768F5065,,
4875059,Ara Fell: Enhanced Edition,1.01,native,2A6291A333245DB6CC4D110DA58C0D01FC58D1DD,,
4875225,Guacamelee! + ,multi,wine,85D0E622DD081ED21E93F379BDE3F65710B951B6,,
4873547,TOKOYO: The Tower of Perpetuity/no Tou,6335492,wine,AFE689DCF3EEF31E40E8CED41404A415F56D0E27,,English Japanese Chinese
4875882,CrossCode,1.4.1,native,C79671A07B9BDDCA68FB03BAC9631FE4268EB63F,,English;German;Chinese;Japanese;Korean.
4872606,The Vagrant,1.466.191119,wine,66EEA775F5A846AAEC7CBE165157E907E839CB41,,English Simplified Chinese Traditional Chinese Japanese Italian Russian Korean Ukrainian Portuguese Spanish
4874453,Hedon,1.6.0,native,0A5F36154E3EF9DEC65D3C7BAC960EBB67C09C0A,,
4873515,Stoneshard,0.6.110,native,74C8D523EBC97020D8E8532ECDA93288C29FF970,,English Russian German Simplified Chinese Polish Italian Spanish Turkish Portuguese Japanese French Korean
4867490,Typing Chronicles: Epistory + Nanotale,multi,wine,ABC11BB9B1961D7F43DE7AC894BCEC28E7C47C37,,
4868149,The Messenger,4251184,wine,1D8455172F5C7FD80ED8ADBF20D41896DA6C4A21,,
4869240,Need for Speed Collection,collection,wine,9A267D5F7D54B841FAEF0FE63B6CDAF72B28C95C,,
4872858,HUNTDOWN,1.277,native,835B41FC6BED9247A205C025217B55AE556D4D24,,English French Italian German Spanish Japanese Simplified Chinese
4872553,Sakuna: Of Rice and Ruin,6049359,wine,9CC626B6DEDC0E072B6D6290CD950E99991FA2CF,,English* Japanese* Korean Traditional Chinese
4871983,Yakuza Collection 0,collection,wine,D37C8337D23A2280B25A9DC0E07B0164687E797F,,
4869254,VA,11,native,31632B6D9C56C90CF1B4D1236ED189A8C36AE4B3,,English;Japanese;Simplified Chinese.
4868275,Noita,23,wine,C8A84F8338F6A345145B0C025546FC1C6710AB50,,English French German Spanish Japanese Korean Portuguese Russian Simplified Chinese Italian Polish
4874455,One Step From Eden,1.6.2,native,7C311C21A390A06FFA757DA40E3A575ABF9F151F,,
4869414,The Count Lucanor,1.4.23,native,696DF12F2128BFB3BC2113116C802B5F6AD99AA5,,English French Spanish Hungarian Russian German Japanese Simplified Chinese Turkish Portuguese Korean Italian
4865173,Underhero,4.1.4,native,20CC4B983B870DF4A0C7C0C72BE433A1F3BF15AD,,
4864685,Clive Barkers Jericho,11267,wine,0B805CD585C9FD3103FA5564B6B13379695CDD6D,,english;french;german;italian;spanish
4866475,Braid,2.0.0.3,native,6F272A6484C24B4943193769C0704834CA891905,,
4865280,The Sims 4: Deluxe Edition,4,wine,5A464AA4AB22270BBFEE5D5D287F3473603CFC82,,
4862908,Age of Empires: Definitive Edition,38862,wine,D1BE33FC8BB50AE2ABCB69200294DEE1AEA747AC,,
4864795,Undertale,2.0.0.1,native,B60130B478053F7ED05535CC1F5B243DB6552815,,
4861093,Wolfenstein: Blade of Agony,3.0,native,E9E5D8FE7951E52E0F0FFB45F523D19A6C470262,,
4862700,Rabi,6472482,wine,142E32994341853A2ED24C63ACD21684A5528535,,
4863906,Dead or Alive 6,6,wine,4FE4016582E0D948A526BD9F0E2C3D9FEB1562E8,,
4865351,Hyper Light Drifter,2.8.0.9,native,0944D6754352F62EC5A8240145DC710146B00B22,,English French Italian German Spanish Japanese
4865469,The Walking Dead: The Telltale Definitive Series,original,wine,29639B68B037AAFC3A907304862499591FBFE92E,,
4865211,Hidden Folks,1.5.3,native,EFEC0C93D2D4C42B97889EC1DFBE84CC4AE80933,,
4866962,The Chronicles of Riddick Assault on Dark Athena,original,wine,6FA3F4A917A47B60CC0FFC6B0D496E3FECC750C5,,english;french;german;italian;spanish
4864498,Tekken 7 Ultimate Edition,7,wine,11F68E88B3D859D7975C216565A16A8A0AD6BAE5,,
4862780,Touhou Kouryudou ~ Unconnected Marketeers,141,wine,0B3F266CA65828DE3B212926774FF7F9D2F75E81,,
4862716,Portal Reloaded,1.1.0,native,C26C8930A773D36E86632888085CB591656BEA67,,
4862907,Age of Empires II: Definitive Edition,original,wine,00612F02742B97F164A3CDD5E8E31B254C2AB7AA,,
4861131,"Tales of Zestiria, Symphonia, Berseria and Vesperia Collection",collection,wine,C9130A88DF920463B10D0149D09C56F9A6DFAA0D,,
4863754,Total War Collection,collection,wine,7E2D5D5963BB1EE8E15C35FBCF8FCDDFB7EF5A19,,
4861736,CONTROL Ultimate Edition,2,wine,86C1E36294AE2635D656E49AC1AD5335F17839E7,,
4860417,Age of Empires II HD + III,multi,wine,16F5994E979FFB11338671FB96F54EE9D9E3715F,,
4859049,DEADBOLT,1.02,native,B5109AF40B2582DBE9C180170A308CD254001B15,,
4860919,DUSK Intruder Edition,1.7,native,5278E2C2D250F4DB40A916FFE58AFF02836DFFED,,
4860966,Factorio,1.1.33,native,03BEA58DF9B3F84B684E106D150BDAA96C464C03,,
4861091,X4 Foundations + Cradle of Humanity,multi,native,8EE9671BFBB063A1151A10949BF9ADD7D37FA8C2,,
4857545,Crawl,1.0.1,native,F1C90C4097B8E9F1E40E422E6AAB34BBAB03A846,,
4854500,Immortals Fenyx Rising,1.1.1,wine,92AE8D8A28D8B9EE6D6F46C8C36A1DBB2587B236,,
4855431,Hitman Collection 2000,collection,wine,5401080C2E008C5FCDDFF22FD4B1DE345D431C17,,
4858423,Just Cause  Complete Edition,4,wine,D45A66EB0426B8CE66A14DB1166128C43A6D08AD,,
4850094,Cuphead,1.2.4,wine,57EF5A7835E028AA0C138920C421998CDE196BD7,,
4857663,Detention + Devotion,multi,wine,13867669D6C234EA6FC756C91CA33E2217A46CC9,,
4853551,Counter,86,native,99066CFAEE73BDD3E61076F770CDBE0ADC289B6D,,
4850052,Hitman 3,3,wine,C904AFB04A2AA29DEA3CFDCB34D2B9BFBF68D218,,
4851854,Portal Duology,22,native,36280BC9E81D70C5EDB1B5DD4CD2726273D2F57F,,
4852493,Deponia + Edna & Harvey Collection,collection,native,92257358DFA2CACF6081481A5B63A66E9A6D159F,,
4851074,L.A. Noire,2663.1,wine,B292FE3069F6BBBFBFE49A5BB2666EB389960562,,
4859048,Dust: An Elysian Tail,1.04,native,D9ABF247C250E59941E70D9ECE8303CE0FC3A583,,
4854313,Assassins Creed Valhalla,1.1.2,wine,69E4CC3CD4E69BF71A17553831D66B8989937594,,
4855345,Freebird Games Collection 2008,collection,native,DB4F83BEDFC4D6072A5E9176EF0CAC57E624F473,,
4850643,Chronicon,1.20.4,native,8458CEA63DB55ABBCEC79CC5DBD2515F4328AF57,,English;Spanish;Chinese.
4844046,Mortal Kombat 11 Premium Edition,11,wine,ADBF83E410C84F9150108CCE83E8FF61A82DE2D0,,
4848326,Immortal Redneck,3302169,native,E596507DDB27375845C84BFFC28FC48214F52FDD,,
4848302,Momodora + Minoria,multi,wine,E0FFB133619E383A7E7E31181BD98B9204DE515F,,
4847499,OneShot + Virgo Versus The Zodiac + Osteoblasts,multi,wine,65459469F0BFDD0FEB2DB27589C90CA6138CE03E,,
4843502,Oxygen Not Included,458490,native,2F091332A48516FAECA0CB03E4C8203D2FD6A2B2,,
4847619,CARRION,1.0.5,native,1BEC6F8214C20AFCA877980A3A73B2EB7D03CD6A,,
4847342,Aragami: Nightfall,11,native,9EC43948B9751959FBC0876C296C6D2934D5F32A,,
4847950,Dark Messiah of Might & Magic,141,wine,FD20523D83BD5C9091D75B4254F749DA77EA4366,,
4841831,Doom 1+2+3 BFG Edition,multi,native,99D85CF9C84DC2E8A7B9AAEC237FC5FBD74DBACB,,
4848196,Devil Daggers,3.1,native,67F24BF66BF54EA7D386C3774CD0AD1F5EE82CB5,,
4844153,Call of Duty: WWII Shadow War,1.25,wine,70F33E880A5955693E07E629E72EC9FE8F102835,,
4843274,eFootball PES ,2021,wine,39AEBAD73B19BFA98C64B75B3C39989545BD2F92,,
4840360,The Talos Principle,3897867,native,490F1DA1A9A6E857C9247626302B6999E2349B13,,
4847302,Jotun Vallhalla + Sundered Eldrich + Spiritfarer,multi,native,9884FBFCBA6A5285A00B01E548772FEADF6FA738,,
4840292,Klei Games Collection 2010,collection,native,471C0434D31EC1CA2DE1F9EECF6C6931E612785B,,
4849702,Oxenfree,2.7.1,native,D349F264A8A51AC92B8BC556A08EE7F012628CBD,,English;french;spanish;german and italian
4840948,Mafia Definitive Edition,14,wine,8A64CC8AB244E729B024E436494F4DE4BCED36DD,,
4846054,The Skallection,141,native,6D6C04C87FD7CB00F20FA812A6A2D7C7C7A59CF6,,
4847615,Chucklefish Games Collection 2013,collection,wine,9645D56CCCD5DA5B09ACD8120E51BFE08E323321,,
4848986,Brutal Legend,5185731,native,67E2BFF97913696CF37DA51AD6457AA89923B26F,,
4833659,Wasteland  Classic +  Director's Cut,multi,native,F93F0DFD0EB5BA5BCA0C7C066B870390239F650C,,
4828737,Empires of the Undergrowth,0.23,native,3BA215785EF83C16833CA00E87FDF9D7023882A8,,
4835984,Dungeons 3: A Multitude of Maps,3,native,3CCDFC192DF4FC6F53DC6390C66BEE907E22507E,,
4832706,Tropico 6,6,native,B33FFE562232572879D933B51C20935233648FB8,,
4839185,Skul: The Hero Slayer,1.2.1,native,69207C837DFA1ACBAE5BAD248DE3A6244CAA01FB,,
4826879,The Escapists  + ,multi,native,AADF75335ACCD9526ECECE9A71141980C52D1BF7,,
4829496,Watch Dogs 2 Gold Edition,2,wine,47548AE14D4084FCCBEA7A948D468F039DED3C99,,
4834111,Kerbal Space Program,1.11.2,native,07C83BAEF362DA72B2AE26E557D74C3F4E2578C1,,
4835797,Lethal League + Blaze + Megabyte Punch,multi,native,B701AE7718506CF8ECA84493A75C225543CE81D2,,
4835414,The Binding Of Isaac Wrath of the lamb + Afterbirth Repetance,multi,wine,84C4C23584E9F86FEEECBA584C88EEB2346E476A,,
4839870,Tomb Raider Trilogy [Goldberg] [ENG] [GNU/Linux Native] [johncena141],141,native,B2BEB458D529DFE358D36E9AE89BE7EBB2438F76,,
4839986,Stellaris: Nemesis,3.0.1.2,native,0775C3AC9E298A86329F44073C7AA2A85B86D0C2,,
4839202,Grand Theft Auto/GTA Collection 2002,collection,wine,D90163DA180A6A4FC47E47F3853997BDD36FC4F0,,
4833203,Euro Truck Simulator 2: Iberia,2,native,8B0193CAE9F6CC4C674BB9A4C469ED1A2A000CE4,,
4832552,Enter the Gungeon,2.1.9,native,6DB10A01C9CEE0B93A8A2A99F7F02F3539F5D898,,
4827084,Grim Fandango Remastered,6,native,9FAAB92AE8B51D6FA7AC7FC7BE81F8C64CEE28FB,,
4827606,Streets of Rage  + Wonder Boy: The Dragon's Trap,multi,native,D09DA31958FF0A9A21EF8209E7707A2FBF1D1BD2,,
4834079,The Last Tinker: City of Colors,86,native,15522FD5010957D4180340C7A37FE40A17DEBE22,,
4839355,Dropsy,2.4.0.5,native,D847A20DD437A5BFF526B71EE717519D503F750D,,
4827235,Tom Clancys Splinter Cell Classics 2003,2003,wine,5ED5D87DFCED46802DA7F36401CE206FFD882329,,
4825006,The Long Dark,1.93,native,9CD3AA04E15499829C11D627CAEFE93F930E3463,,
4822329,Total War WARHAMMER II,1.11.0,native,BCFD68FDF9DBFD4660676EC085927374903F1A9A,,
4824654,Wonderful Everyday Down the Rabbit,2,native,4AA8B7E6C8DF9826C52764810E9B18C7C4E6A831,,
4780937,Shadow Tactics + Desperados III,multi,native,2807A87A970DA1D2386B683BF46ECF0E987B31BC,,
4800734,Sid Meiers Civilization V,1.0.3.114,native,9C892093463D526498F3DDA34B3BC1D3CEF4F37B,,
4806960,7 Days To Die,7,native,791CDC3FC9BAD5DAEA73D07DDBD02D8B1FA0FC22,,
4788943,Ori and the Blind Forest + Will of the Wisps,multi,wine,6F4CDAB861EC866DCB94EBBDE967A42F1E2ECCDF,,
4784173,This War of Mine,6.0.8.a,native,B01150DB98BF3362890A8580A88A48FC4E23D3B4,,
4825171,art of rally deluxe edition,1.1.0e,native,659C654D68FD06FC9DE10FA7A5AC25127D255C07,,
4804733,Imperator: Rome,2.0.2,native,C82405992ADC155A95F73D65E67F727C228B8F3C,,
4785978,Left 4 Dead 2: Last Stand,4,native,771E99373F7BBA794DE057614DC0F4BC67413E1A,,
4816238,American Truck Simulator: Colorado,1.40.1.0s,native,A081E8EB1031AE42FB0E1D4665FF3C736DB387D0,,
4791951,Iratus: Lord of the Dead,181.01,native,86F8F0AE88BA611BEB7FF562238230C23D709C7B,,
4807840,Mass Effect Collection,collection,wine,73C075B678AA70C5F535C2817A2A8E9EA4DD82A1,,
4782534,Amanita Games Collection [GOG] [GNU/Linux Native/Wine/Ruffle] [johncena141],collection,wine,A6AFA4AC7144CCD554AA8BE28179A801523DF051,,
4802725,Loop Hero,1.0,native,4918134BF8FFD6E293C23273907EFDFDD878565D,,
4811068,Half,1,native,614BDC0A70B49929914A7A9B694002816E5DAD25,,
4796951,Age of Empires III Definitive Edition,100.12.15,wine,7F72C3DC89EC8F2D957B611B1DA41AC3CDBAF1FA,,
4782663,Merchant of the Skies,1.6.7,native,2FDCDBFA0F87E3D288BDB8DDBA85D25FEDEBCB56,,
4802734,Bastion + Transistor + Pyre,multi,native,59D479312D609EC768D684EE65D0BBF5BEAC136D,,
4778158,Cities Skylines Collection,collection,native,91641CD28C749EA5DED426909170969859952095,,
4774313,DOOM Eternal,12,wine,CE2151D619BA2687FC0625FC583752F19BFCA42B,,
4750643,Zombie Army : Dead War,4,wine,99B253C6F235F42641FEA21988CEA8AA35E55A87,,
4775490,ATOM RPG: Dead City,1.175,native,89031CA9D02BA90195F3EBF9B77C4CF0D288B92E,,
4735275,Gunscape: Gold Edition,141,native,EDAB196AE766E067BE637B75CAFDC33F6F249742,,
4750746,Mount and Blade Legacy Collection,collection,wine,45DF7AE025E141292B29A84FD7F3DCAF98C9AF9B,,
4778523,Metro:  + Last Light Redux,multi,native,5E34AA1233A756EF63C9B79F45859F7C710A5AB3,,
4776275,Ion Fury,1.1,native,29F6CDAF5B815E71A31D93B88793B0CB89480F30,,
4774910,Little Nightmares Collection,collection,wine,741DC6F9A46173F1616C40B721E1D21E92A8B49F,,
4771441,Vampyr,1.1.5,wine,55333F0563C2AEA509A8561EB6121EB8D197D6AE,,
4778364,Fallout Collection,collection,wine,6BBB1A508FDFA86C93AD98BB905A82175C1F6F53,,
4772762,Nioh Complete Collection,collection,wine,7F9D24D7F1D07949CCDBDB221390C8A7A23F1F59,,
4772833,Wolfenstein 1992,1992,native,62453999EE12CF16051E9508F2CC5FE93E9D4AC9,,
4770626,Life is Strange + Before the Storm + Life is Strange ,multi,native,49D00D850B302678BA072ABD2D17B8FBA377B39E,Adventure,English
4746471,Mafia + Mafia II,multi,wine,33BCF4D0A1C97D7CBFC5F41581BB16B7A72FA08F,,
4771428,Middle,1.21,wine,048725E7B3142BD0992703176112D63B3A77A80D,,
